{
  "$schema": "http://json-schema.org/draft-04/schema#",
  "type": "object",
  "properties": {
    "response": {
      "type": "array",
      "items": {
        "type": "object",
        "additionalProperties": false,
        "properties": {
          "id": {
            "type": "integer"
          },
          "error_details": {
            "type": ["null", "number"]
          },
          "state": {
            "type": "string"
          },
          "statement": {
            "type": "object",
            "properties": {
              "action": {
                "type": "string"
              }
            },
            "required": [
              "action"
            ]
          },
          "organization_id": {
            "type": ["integer", "null"]
          },
          "machine_id": {
            "type": ["integer", "null"]
          },
          "white_box_assessments": {
            "type": "array",
            "items": {}
          }
        },
        "required": [
          "id",
          "error_details",
          "state",
          "statement",
          "machine_id",
          "organization_id",
          "machine_id",
          "white_box_assessments"
        ]
      }
    }
  },
  "required": [
    "response"
  ]
}
