{
  "$schema": "http://json-schema.org/draft-04/schema#",
  "type": "object",
  "properties": {
    "response": {
      "type": "object",
      "additionalProperties": false,
      "properties": {
        "id": {
          "type": "integer"
        },
        "error_details": {
          "type": ["null", "string"]
        },
        "security_containers": {
          "$ref": "security_containers.json#/properties/response"
        },
        "machine_id": {
          "type": ["null", "integer"]
        },
        "organization_id": {
          "type": ["null", "integer"]
        },
        "state": {
          "type": "string"
        },
        "created_at": {
          "type": "string"
        },
        "updated_at": {
          "type": "string"
        },
        "state_details": {
          "type": ["null", "string"]
        },
        "assessments": {
          "$ref": "assessments.json#/properties/response"
        }
      },
      "required": [
        "id",
        "error_details",
        "security_containers",
        "machine_id",
        "organization_id",
        "state",
        "created_at",
        "updated_at",
        "state_details",
        "assessments"
      ]
    }
  },
  "required": [
    "response"
  ]
}
