{
  "$schema": "http://json-schema.org/draft-04/schema#",
  "type": "object",
  "properties": {
    "response": {
      "type": "array",
      "items": {
        "type": "object",
        "additionalProperties": false,
        "properties": {
          "id": {
            "type": "integer"
          },
          "organization_id": {
            "type": "integer"
          },
          "enabled": {
            "type": "boolean"
          },
          "event": {
            "type": "string"
          },
          "description": {
            "type": "string"
          },
          "created_at": {
            "type": "string"
          },
          "updated_at": {
            "type": "string"
          }
        },
        "required": [
          "id",
          "organization_id",
          "enabled",
          "event",
          "description",
          "created_at",
          "updated_at"
        ]
      }
    }
  },
  "required": [
    "response"
  ]
}

