{
  "$schema": "http://json-schema.org/draft-04/schema#",
  "type": "object",
  "properties": {
    "response": {
      "type": "array",
      "items": {
        "type": "object",
        "additionalProperties": false,
        "properties": {
          "id": {
            "type": "integer"
          },
          "uid": {
            "type": "string"
          },
          "slug": {
            "type": "string"
          },
          "token": {
            "type": "null"
          },
          "machine_count": {
            "type": "integer"
          },
          "primary_relay": {
            "type": "null"
          },
          "contains_enabled_tests": {
            "type": "boolean"
          },
          "machine_assessment_summary": {
            "erroring": {
              "type": "integer"
            },
            "warning": {
              "type": "integer"
            },
            "failing": {
              "type": "integer"
            },
            "passing": {
              "type": "integer"
            },
            "informing": {
              "type": "integer"
            },
            "pending": {
              "type": "integer"
            }
          },
          "configuration": {
            "type": "object"
          },
          "organization_errors": {
            "type": "array"
          }
        },
        "required": [
          "id",
          "uid",
          "slug",
          "token",
          "machine_count",
          "configuration",
          "organization_errors",
          "contains_enabled_tests",
          "primary_relay"
        ]
      }
    }
  },
  "required": [
    "response"
  ]
}
