{
  "$schema": "http://json-schema.org/draft-04/schema#",
  "type": "object",
  "properties": {
    "response": {
      "type": "object",
      "additionalProperties": false,
      "properties": {
        "id": {
          "type": "integer"
        },
        "name": {
          "type": "string"
        },
        "description": {
          "type": "string"
        },
        "key_signature": {
          "type": "string"
        },
        "organization_id": {
          "type": "integer"
        },
        "created_at": {
          "type": "string"
        },
        "updated_at": {
          "type": "string"
        }
      },
      "required": [
        "id",
        "name",
        "description",
        "key_signature",
        "organization_id",
        "created_at",
        "updated_at"
      ]
    }
  },
  "required": [
    "response"
  ]
}
